…
## Tablas por escenario (redondeadas)
df_scen_tabla <- df_scen %>%
  mutate(N_exp = round(N_exp, 2),
         N_log = round(N_log, 2))

print(df_scen_tabla)
```

    ## # A tibble: 24 × 6
    ##    escenario                   r     K     t N_exp N_log
    ##    <chr>                   <dbl> <dbl> <int> <dbl> <dbl>
    ##  1 Base                      0.5   200     0  10    10  
    ##  2 Base                      0.5   200     1  16.5  16.0
    ##  3 Base                      0.5   200     2  27.2  25.0
    ##  4 Base                      0.5   200     3  44.8  38.2
    ##  5 Base                      0.5   200     4  73.9  56  
    ##  6 Base                      0.5   200     5 122.   78.1
    ##  7 Sequía (reduce K a 100)   0.5   100     0  10    10  
    ##  8 Sequía (reduce K a 100)   0.5   100     1  16.5  15.5
    ##  9 Sequía (reduce K a 100)   0.5   100     2  27.2  23.2
    ## 10 Sequía (reduce K a 100)   0.5   100     3  44.8  33.2
    ## # ℹ 14 more rows
…
